<?xml version="1.0"?>
<robot xmlns:xacro="http://www.ros.org/wiki/xacro">

  <xacro:property name="right_arm_j0_damping" value= "0.1" />
  <xacro:property name="right_arm_j0_friction" value= "0.0" />
  <xacro:property name="right_arm_j1_damping" value= "0.1" />
  <xacro:property name="right_arm_j1_friction" value= "0.0" />
  <xacro:property name="right_arm_j2_damping" value= "0.1" />
  <xacro:property name="right_arm_j2_friction" value= "0.0" />
  <xacro:property name="right_arm_j3_damping" value= "0.1" />
  <xacro:property name="right_arm_j3_friction" value= "0.0" />
  <xacro:property name="right_arm_j4_damping" value= "0.1" />
  <xacro:property name="right_arm_j4_friction" value= "0.0" />
  <xacro:property name="right_arm_j5_damping" value= "0.1" />
  <xacro:property name="right_arm_j5_friction" value= "0.0" />
  <xacro:property name="right_arm_j6_damping" value= "0.1" />
  <xacro:property name="right_arm_j6_friction" value= "0.0" />

  <xacro:property name="right_arm_j0_effort" value= "100.0" />
  <xacro:property name="right_arm_j1_effort" value= "200.0" />
  <xacro:property name="right_arm_j2_effort" value= "100.0" />
  <xacro:property name="right_arm_j3_effort" value= "200.0" />
  <xacro:property name="right_arm_j4_effort" value= "50.0" />
  <xacro:property name="right_arm_j5_effort" value= "100.0" />
  <xacro:property name="right_arm_j6_effort" value= "100.0" />



  <joint name="${robot_name}right_arm/joint0" type="revolute">
    <parent link="${robot_name}chest_base"/>
    <child link="${robot_name}right_shoulder_roll"/>
    <origin rpy=" -1.5596 -0.0 -0.26157" xyz=" 0.0 -0.0 0.0"/>
    <axis xyz="0 0 1"/>
    <dynamics damping="${right_arm_j0_damping}" friction="${right_arm_j0_friction}"/>
    <limit effort="${right_arm_j0_effort}" lower="-1.57" upper="1.57" velocity="1"/>
  </joint>

  <link name="${robot_name}right_shoulder_roll">
    <visual>
      <geometry>
        <mesh filename="package://r2_description/meshes/Right_Shoulder_Upper.dae"/>
      </geometry>
      <material name="dirty_white"/>
      <origin rpy="0 0 2.25" xyz="0 0 .0254"/>
    </visual>
    <collision>
      <geometry>
        <mesh filename="package://r2_description/meshes/Right_Shoulder_Upper.dae"/>
      </geometry>
      <origin rpy="0 0 2.25" xyz="0 0 .0254"/>
    </collision> 
    <inertial>
        <origin xyz="0.0089916 -0.00131572  0.10287"/>
        <mass value="6.168856232"/>
        <inertia ixx="0.0198585269"  ixy="-0.0060195977"  ixz="-0.0003950635"  iyy="0.0671900643"  iyz="0.00012683"  izz="0.0634150128"/>
    </inertial>
  </link>

  <joint name="${robot_name}right_arm/joint1" type="revolute">
    <parent link="${robot_name}right_shoulder_roll"/>
    <child link="${robot_name}right_shoulder_pitch"/>
    <origin rpy=" 1.5637 -0.0 -1.570796" xyz=" 0.0 -0.0 0.320929"/>
    <axis xyz="0 0 1"/>
    <dynamics damping="${right_arm_j1_damping}" friction="${right_arm_j1_friction}"/>
    <limit effort="${right_arm_j1_effort}" lower="-1.66" upper=".175" velocity="1"/>
  </joint>

  <link name="${robot_name}right_shoulder_pitch">
    <visual>
      <geometry>
        <mesh filename="package://r2_description/meshes/Right_Shoulder_Lower.dae"/>
      </geometry>
      <material name="dirty_white"/>
      <origin rpy=".0 0 1.57" xyz="0 0 0"/>
    </visual>
    <collision>
      <geometry>
        <mesh filename="package://r2_description/meshes/Right_Shoulder_Lower.dae"/>
      </geometry>
      <origin rpy=".0 0 1.57" xyz="0 0 0"/>
    </collision> 
     <inertial>
        <origin xyz="0.0077978 0.037084 0.00028448"/>
        <mass value="4.4270615312"/>
        <inertia ixx="0.002589715"  ixy="0.0003699"  ixz="0.0"  iyy="0.002589715"  iyz="0.0"  izz="0.003329633"/>
    </inertial>
  </link>

  <joint name="${robot_name}right_arm/joint2" type="revolute">
    <parent link="${robot_name}right_shoulder_pitch"/>
    <child link="${robot_name}right_upper_arm"/>
    <origin rpy=" -1.5679 -0.0 0.0" xyz=" 0.0 0.0 0.0"/>
    <axis xyz="0 0 1"/>
    <dynamics damping="${right_arm_j2_damping}" friction="${right_arm_j2_friction}"/>
    <limit effort="${right_arm_j2_effort}" lower="0.785" upper="4.89" velocity="1"/>
  </joint>

  <link name="${robot_name}right_upper_arm">
    <visual>
      <geometry>
        <mesh filename="package://r2_description/meshes/Right_Upper_Arm.dae"/>
      </geometry>
      <material name="dirty_white"/>
      <origin rpy="0 0 0" xyz="0 0 .1016"/>
    </visual>
    <collision>
       <geometry>
        <mesh filename="package://r2_description/meshes/Right_Upper_Arm.dae"/>
      </geometry>
      <origin rpy="0 0 0" xyz="0 0 .1016"/>
    </collision>
    <inertial>
        <origin xyz="0.041402  -0.0074168  0.1016"/>
        <mass value="4.853438359"/>
        <inertia ixx="0.0067394"  ixy="0.0"  ixz="0.0"  iyy="0.002788752"  iyz="-0.00023239"  izz="0.006741050"/>
    </inertial>
  </link>

  <joint name="${robot_name}right_arm/joint3" type="revolute">
    <parent link="${robot_name}right_upper_arm"/>
    <child link="${robot_name}right_elbow"/>
    <origin rpy=" 1.5684 -0.0 0.0" xyz=" 0.0536067 0.0 0.355219"/>
    <axis xyz="0 0 1"/>
    <dynamics damping="${right_arm_j3_damping}" friction="${right_arm_j3_friction}"/>
    <limit effort="${right_arm_j3_effort}" lower="-2.79" upper="-.087" velocity="1"/>
  </joint>

  <link name="${robot_name}right_elbow">
    <visual>
      <geometry>
        <mesh filename="package://r2_description/meshes/Right_Elbow.dae"/>
      </geometry>
      <material name="dirty_white"/>
      <origin rpy="0 0 1.57" xyz="0 0 0"/>
    </visual>
    <collision>
      <geometry>
        <mesh filename="package://r2_description/meshes/Right_Elbow.dae"/>
      </geometry>
      <origin rpy="0 0 1.57" xyz="0 0 0"/>
    </collision>
    <inertial>
        <origin xyz=" -0.026162  0.033782 0.0154432"/>
        <mass value="2.9710300235"/>
        <inertia ixx="0.0023584"  ixy="-0.0009433"  ixz="0.0"  iyy="0.002830"  iyz="0.0"  izz="0.003301886"/>
    </inertial>
  </link>

  <joint name="${robot_name}right_arm/joint4" type="revolute">
    <parent link="${robot_name}right_elbow"/>
    <child link="${robot_name}right_lower_arm"/>
    <origin rpy=" -1.5656 -0.0 0.0" xyz=" -0.0537464 -0.0 0.0"/>
    <axis xyz="0 0 1"/>
    <dynamics damping="${right_arm_j4_damping}" friction="${right_arm_j4_friction}"/>
    <limit effort="${right_arm_j4_effort}" lower="-4.45" upper="1.31" velocity="1"/>
  </joint>

  <link name="${robot_name}right_lower_arm">
    <visual>
      <geometry>
        <mesh filename="package://r2_description/meshes/Right_Forearm.dae"/>
      </geometry>
      <material name="dirty_white"/>
      <origin xyz="0 0 0.1"/>
    </visual>
    <collision>
      <geometry>
        <mesh filename="package://r2_description/meshes/Right_Forearm.dae"/>
      </geometry>
      <origin xyz="0 0 0.1"/>
    </collision>
    <inertial>
        <origin xyz="0.0003556 -0.00122682 0.17653"/>
        <mass value="6.939963261"/>
        <inertia ixx="0.003343"  ixy="0.00000088423"  ixz="0.0000025448"  iyy="0.003326"  iyz="-0.000017339"  izz="0.0021464"/>
    </inertial>
  </link>

  <joint name="${robot_name}right_arm/joint5" type="revolute">
    <parent link="${robot_name}right_lower_arm"/>
    <child link="${robot_name}right_wrist_pitch"/>
    <origin rpy=" 1.5329 -0.0 0.0" xyz=" 0.0 0.0 0.3569462"/>
    <axis xyz="0 0 1"/>
    <dynamics damping="${right_arm_j5_damping}" friction="${right_arm_j5_friction}"/>
    <limit effort="${right_arm_j5_effort}" lower="-1.22" upper="1.22" velocity="1"/>
  </joint>

<!--  <link name="${robot_name}right_wrist_pitch">
    <inertial>
        <origin xyz="-0.004064   0.000000152908   -0.00092202"/>
        <mass value="0.1165732391"/>
        <inertia ixx="0.0001"  ixy="0.0"  ixz="0.0"  iyy="0.0001"  iyz="0.0"  izz="0.0001"/>
    </inertial>
  </link>
-->
  <xacro:non_visual_link name="${robot_name}right_wrist_pitch" mass="0.5" x="-0.004064" y="0.000000152908"   z="-0.00092202"/>


  <joint name="${robot_name}right_arm/joint6" type="revolute">
    <parent link="${robot_name}right_wrist_pitch"/>
    <child link="${robot_name}right_wrist_yaw"/>
    <origin rpy=" 1.5612 -0.0 1.5923" xyz=" -0.000139607 0.006491247 0.0"/>
    <axis xyz="0 0 1"/>
    <dynamics damping="${right_arm_j6_damping}" friction="${right_arm_j6_friction}"/>
    <limit effort="${right_arm_j6_effort}" lower="-0.785" upper="0.785" velocity="1"/>
  </joint>

  <xacro:non_visual_link name="${robot_name}right_wrist_yaw"/>


  <joint name="${robot_name}fixed/right_wrist_yaw/right_palm" type="fixed">
    <parent link="${robot_name}right_wrist_yaw"/>
    <child link="${robot_name}right_palm"/>
    <origin rpy=" 0.0 -0.0 0.0299" xyz=" 0.0 0.0 0.0"/>
  </joint>

  <link name="${robot_name}right_palm">
    <visual>
      <geometry>
        <mesh filename="package://r2_description/meshes/Right_Palm.dae"/>
      </geometry>
      <origin xyz="0.0 0.0 -0.0" rpy="3.14 0 1.57"/>
    </visual>
    <collision>
      <geometry>
        <mesh filename="package://r2_description/meshes/Right_Palm.dae"/>
      </geometry>
      <origin xyz="0.0 0.0 -0.0" rpy="3.14 0 1.57"/>
    </collision>
    <inertial>
        <mass value="1.1"/>
        <inertia ixx="0.00099561"  ixy="0.000053236"  ixz="0.000054355"  iyy="0.00109068"  iyz="0.000072697"  izz="0.00138773"/>
    </inertial>
  </link>

</robot>
